{
    "key": "group_5d235a99ddf43",
    "title": "Option : Megamenu",
    "fields": [
        {
            "key": "field_5d235aa632ea6",
            "label": "Main category (FR)",
            "name": "mm-main-product-category-fr",
            "type": "taxonomy",
            "instructions": "",
            "required": 0,
            "conditional_logic": 0,
            "wrapper": {
                "width": "",
                "class": "",
                "id": ""
            },
            "taxonomy": "product-category",
            "field_type": "radio",
            "allow_null": 0,
            "add_term": 1,
            "save_terms": 0,
            "load_terms": 0,
            "return_format": "object",
            "multiple": 0
        },
        {
            "key": "field_5d51bf3cf6b8e",
            "label": "Main category (EN)",
            "name": "mm-main-product-category-en",
            "type": "taxonomy",
            "instructions": "",
            "required": 0,
            "conditional_logic": 0,
            "wrapper": {
                "width": "",
                "class": "",
                "id": ""
            },
            "taxonomy": "product-category",
            "field_type": "radio",
            "allow_null": 0,
            "add_term": 1,
            "save_terms": 0,
            "load_terms": 0,
            "return_format": "object",
            "multiple": 0
        },
        {
            "key": "field_5d235b3932ea7",
            "label": "Types",
            "name": "",
            "type": "message",
            "instructions": "",
            "required": 0,
            "conditional_logic": 0,
            "wrapper": {
                "width": "",
                "class": "",
                "id": ""
            },
            "message": "Product types will appear automatically if not empty.",
            "new_lines": "wpautop",
            "esc_html": 0
        },
        {
            "key": "field_5d235b5532ea8",
            "label": "Secondary categories",
            "name": "",
            "type": "message",
            "instructions": "",
            "required": 0,
            "conditional_logic": 0,
            "wrapper": {
                "width": "",
                "class": "",
                "id": ""
            },
            "message": "Secondary categories will appear automatically and are not empty (the main category will be removed automatically as well).",
            "new_lines": "wpautop",
            "esc_html": 0
        },
        {
            "key": "field_5d235b9332ea9",
            "label": "Button (FR)",
            "name": "mm-btn-fr",
            "type": "link",
            "instructions": "",
            "required": 0,
            "conditional_logic": 0,
            "wrapper": {
                "width": "",
                "class": "",
                "id": ""
            },
            "return_format": "array"
        },
        {
            "key": "field_5d235c0bcf6ab",
            "label": "Button (EN)",
            "name": "mm-btn-en",
            "type": "link",
            "instructions": "",
            "required": 0,
            "conditional_logic": 0,
            "wrapper": {
                "width": "",
                "class": "",
                "id": ""
            },
            "return_format": "array"
        }
    ],
    "location": [
        [
            {
                "param": "options_page",
                "operator": "==",
                "value": "acf-options-megamenu"
            }
        ]
    ],
    "menu_order": 0,
    "position": "normal",
    "style": "default",
    "label_placement": "top",
    "instruction_placement": "label",
    "hide_on_screen": "",
    "active": 1,
    "description": "",
    "modified": 1562355473
}