<?xml version="1.0" encoding="utf-8"?>
<!-- Generator: Adobe Illustrator 23.0.4, SVG Export Plug-In . SVG Version: 6.00 Build 0)  -->
<svg version="1.1" id="Layer_1" xmlns="http://www.w3.org/2000/svg" xmlns:xlink="http://www.w3.org/1999/xlink" x="0px" y="0px"
	 viewBox="0 0 341.3 512" style="enable-background:new 0 0 341.3 512;" xml:space="preserve">
<style type="text/css">
	.st0{fill:#FFFFFF;}
	.st1{fill:#1F4598;}
</style>
<rect x="87.4" y="58.8" class="st0" width="182" height="223"/>
<path class="st1" d="M150.7,153.6c10.7,0.4,21.6,0.6,32.1-0.9c14.9-2.1,21.6-10.5,21.7-24.7c0.1-15.1-6.5-23-21.9-25.6
	c-4.2-0.7-8.6-0.8-12.8-0.9c-4.8-0.1-8.8-0.1-12,0c-1.7,0.1-3.2,0.2-4.6,0.4c-9.3,1.4-9.3,6.8-9.3,25.3c0,4.8-0.4,9.7-0.1,14.5
	c0.1,1.6,0.2,3.2,0.5,4.8C144.7,149.4,148.4,153.5,150.7,153.6z"/>
<path class="st1" d="M188.2,185.6c-12.5-1.1-25.1-1.1-37.6-0.8c-2.3,0.1-6.3,3.8-6.4,5.9c-0.6,15-0.3,30-0.3,47.4
	c16.7-0.9,32.5-0.5,47.8-3c12.6-2,18.9-14,17.9-28.1C208.8,194.7,201.6,186.8,188.2,185.6z"/>
<path class="st1" d="M170.7,0C76.6,0,0,76.6,0,170.7c0,28.2,7.1,56.3,20.5,81.1l140.8,254.7c1.9,3.4,5.4,5.5,9.3,5.5
	s7.5-2.1,9.3-5.5l140.9-254.8c13.4-24.8,20.4-52.8,20.4-81C341.3,76.6,264.8,0,170.7,0z M231.8,257.1c-11.9,7.1-26.3,12.9-40,13.8
	c-30.7,2-61.6,0.6-93.8,0.6c0-68.3,0-135.5,0-204.2c10.5,0,20.5-0.2,30.4,0c25.1,0.7,50.3,0,75.1,3c28,3.4,43,18.6,46.7,41.7
	c3.6,22.6-4,38.2-24,49.2c-2.4,1.3-4.7,2.7-7.4,4.3c1.5,1.2,2.2,2.2,3.1,2.5c18.8,5.6,32.1,16.5,33.8,37.1
	C257.5,226.8,250.6,245.9,231.8,257.1z"/>
</svg>
